<?xml version="1.0" encoding="UTF-8" standalone="no"?>
<!-- Created with Inkscape (http://www.inkscape.org/) -->

<svg
   xmlns:dc="http://purl.org/dc/elements/1.1/"
   xmlns:cc="http://creativecommons.org/ns#"
   xmlns:rdf="http://www.w3.org/1999/02/22-rdf-syntax-ns#"
   xmlns:svg="http://www.w3.org/2000/svg"
   xmlns="http://www.w3.org/2000/svg"
   xmlns:sodipodi="http://sodipodi.sourceforge.net/DTD/sodipodi-0.dtd"
   xmlns:inkscape="http://www.inkscape.org/namespaces/inkscape"
   width="367.14798"
   height="91.72258"
   id="svg3011"
   version="1.1"
   inkscape:version="0.48.5 r10040"
   sodipodi:docname="hidden_leaf.svg">
  <defs
     id="defs3013" />
  <sodipodi:namedview
     id="base"
     pagecolor="#ffffff"
     bordercolor="#666666"
     borderopacity="1.0"
     inkscape:pageopacity="0.0"
     inkscape:pageshadow="2"
     inkscape:zoom="2.8284271"
     inkscape:cx="244.76205"
     inkscape:cy="57.800803"
     inkscape:document-units="px"
     inkscape:current-layer="layer1"
     showgrid="false"
     inkscape:window-width="1920"
     inkscape:window-height="1027"
     inkscape:window-x="3832"
     inkscape:window-y="-8"
     inkscape:window-maximized="1"
     fit-margin-top="0"
     fit-margin-left="0"
     fit-margin-right="0"
     fit-margin-bottom="0" />
  <metadata
     id="metadata3016">
    <rdf:RDF>
      <cc:Work
         rdf:about="">
        <dc:format>image/svg+xml</dc:format>
        <dc:type
           rdf:resource="http://purl.org/dc/dcmitype/StillImage" />
        <dc:title></dc:title>
      </cc:Work>
    </rdf:RDF>
  </metadata>
  <g
     inkscape:label="Layer 1"
     inkscape:groupmode="layer"
     id="layer1"
     transform="translate(-256.83415,-733.11218)">
    <path
       style="fill:none;stroke:#000000;stroke-width:1px;stroke-linecap:butt;stroke-linejoin:miter;stroke-opacity:1"
       d="m 385.12066,754.74599 c -32.93304,3.2933 -57.22399,19.72487 -73.99368,40.78491 -14.08925,5.44727 -43.89841,2.18639 -50.38135,15.15229 -1.35578,2.71155 -5.41041,8.35292 -2.20971,11.55362 1.1559,1.1559 12.31869,-9.47765 13.57392,-10.73288 6.65127,-6.65126 30.44381,-10.01815 41.92283,-8.80522 34.41387,28.96932 31.61975,23.51226 82.79977,14.12663"
       id="path4684"
       inkscape:connector-curvature="0"
       sodipodi:nodetypes="ccssscc" />
    <path
       style="fill:none;stroke:#000000;stroke-width:1px;stroke-linecap:butt;stroke-linejoin:miter;stroke-opacity:1"
       d="m 315.42013,799.82405 c 3.6615,0.99446 7.45497,-0.005 9.47018,-2.02031 18.74396,-18.74395 36.54322,-32.40387 62.50319,-43.94164 13.29152,-3.16082 25.13729,-6.31345 41.03745,-6.31345 7.5894,-0.72268 14.81913,-0.43289 21.74762,0.25996"
       id="path4712"
       inkscape:connector-curvature="0" />
    <path
       style="fill:none;stroke:#000000;stroke-width:1px;stroke-linecap:butt;stroke-linejoin:miter;stroke-opacity:1"
       d="m 319.08194,800.20285 c 2.06637,0.40742 6.3827,-0.81463 7.70241,0.50508 16.42629,16.42629 37.97615,20.6433 71.21575,15.65736 13.88563,-3.21915 26.07943,-9.71952 38.96419,-13.11025"
       id="path4734"
       inkscape:connector-curvature="0" />
    <path
       style="fill:none;stroke:#000000;stroke-width:1px;stroke-linecap:butt;stroke-linejoin:miter;stroke-opacity:1"
       d="m 326.33929,800.30861 c 12.18761,2.78908 18.50969,-8.57188 27.76785,-14.01786 11.24365,-8.75734 25.17612,-17.94051 39.19643,-23.39285 17.02492,-10.866 41.91025,-16.53219 62.58929,-14.46429 2.13669,0.3191 4.4037,0.57876 6.65178,0.80357"
       id="path4744"
       inkscape:connector-curvature="0" />
    <path
       style="fill:none;stroke:#000000;stroke-width:1px;stroke-linecap:butt;stroke-linejoin:miter;stroke-opacity:1"
       d="m 332.84526,800.58166 c 39.21886,16.3927 54.13362,15.91933 97.35346,4.54569 16.27826,-5.24246 72.18572,-20.54168 80.8122,-29.16816 4.73396,-4.73396 13.51689,-9.94363 20.8344,-11.86929 40.62546,-11.28191 67.64063,4.42584 91.63682,-30.47772"
       id="path4748"
       inkscape:connector-curvature="0" />
    <path
       style="fill:none;stroke:#000000;stroke-width:1px;stroke-linecap:butt;stroke-linejoin:miter;stroke-opacity:1"
       d="m 333.72915,800.7049 c 25.76495,6.98896 35.22073,-1.93606 51.26524,-13.06389 14.20339,-12.91961 69.43524,-46.98402 95.33315,-37.06957 8.64005,1.72975 14.37443,5.61838 19.06663,10.6173"
       id="path4754"
       inkscape:connector-curvature="0" />
    <path
       style="fill:none;stroke:#000000;stroke-width:1px;stroke-linecap:butt;stroke-linejoin:miter;stroke-opacity:1"
       d="m 350.625,802.8979 c 20.01808,3.41228 48.88391,7.58705 70.89286,4.28571"
       id="path4758"
       inkscape:connector-curvature="0" />
    <path
       style="fill:none;stroke:#000000;stroke-width:1px;stroke-linecap:butt;stroke-linejoin:miter;stroke-opacity:1"
       d="m 377.79705,806.51631 c 4.95319,1.6426 19.2465,0.57774 23.61232,-3.78808 12.75081,-12.75081 74.90465,-57.8126 101.14152,-39.77475 6.92372,1.11275 15.54622,0.53551 21.15007,2.71478 0.46699,0.2225 0.91521,0.57592 1.19956,0.78918"
       id="path4762"
       inkscape:connector-curvature="0" />
    <path
       style="fill:none;stroke:#000000;stroke-width:1px;stroke-linecap:butt;stroke-linejoin:miter;stroke-opacity:1"
       d="m 410.12193,807.779 c 31.58309,-9.96696 51.5386,-37.8776 96.97465,-31.06219 0.66746,0.20691 1.28808,0.5462 1.6415,0.78918"
       id="path4766"
       inkscape:connector-curvature="0" />
    <path
       style="fill:none;stroke:#000000;stroke-width:1px;stroke-linecap:butt;stroke-linejoin:miter;stroke-opacity:1"
       d="m 408.30357,813.70147 c 14.45605,1.57485 30.31376,1.62258 44.10715,-0.44643 17.50354,-9.11945 37.33209,-16.79994 48.57142,-31.78572"
       id="path4776"
       inkscape:connector-curvature="0" />
    <path
       style="fill:none;stroke:#000000;stroke-width:1px;stroke-linecap:butt;stroke-linejoin:miter;stroke-opacity:1"
       d="m 557.67857,760.3979 c -20.44659,3.30488 -28.26709,16.55767 -40.89285,27.5 -15.30544,15.52845 -38.64871,30.01073 -66.69643,25.80357"
       id="path4778"
       inkscape:connector-curvature="0" />
    <path
       style="fill:none;stroke:#000000;stroke-width:1px;stroke-linecap:butt;stroke-linejoin:miter;stroke-opacity:1"
       d="m 575.44643,758.61218 c -7.73125,7.57443 -20.4893,6.82859 -27.67857,14.01786 -11.31724,11.31723 -48.05832,49.01898 -71.25,40"
       id="path4782"
       inkscape:connector-curvature="0" />
    <path
       style="fill:none;stroke:#000000;stroke-width:1px;stroke-linecap:butt;stroke-linejoin:miter;stroke-opacity:1"
       d="m 595.71429,755.21932 c -44.6501,17.65186 -43.88458,54.51566 -101.78572,57.41072"
       id="path4792"
       inkscape:connector-curvature="0" />
    <path
       style="fill:none;stroke:#000000;stroke-width:1px;stroke-linecap:butt;stroke-linejoin:miter;stroke-opacity:1"
       d="m 525.7844,805.63242 c 36.95948,-4.69682 50.72758,-37.41589 77.27667,-53.03301"
       id="path4808"
       inkscape:connector-curvature="0" />
    <path
       style="fill:none;stroke:#000000;stroke-width:1px;stroke-linecap:butt;stroke-linejoin:miter;stroke-opacity:1"
       d="m 546.9976,799.44524 c 21.17485,-3.87013 78.23424,-45.85645 76.26652,-65.53365"
       id="path4812"
       inkscape:connector-curvature="0" />
    <path
       style="fill:#008200;fill-opacity:1;stroke:none"
       d="m 349.71512,823.61562 c -8.71694,-0.91511 -15.51611,-4.89568 -32.37422,-18.95353 l -3.07321,-2.56272 -1.69976,-0.11257 c -8.95375,-0.59299 -22.47031,1.15428 -31.22147,4.03596 -5.00107,1.64682 -7.64483,3.14529 -10.79024,6.11589 -6.11389,5.77409 -11.15144,9.81353 -11.76526,9.43416 -0.34663,-0.21422 -0.85951,-1.55796 -0.86353,-2.26239 -0.009,-1.58908 0.84931,-3.82439 2.85974,-7.44725 1.24102,-2.23637 1.41966,-2.48938 2.66966,-3.78099 3.06273,-3.16471 8.40561,-5.25296 17.44769,-6.81941 1.4098,-0.24423 6.34187,-0.92312 10.96016,-1.50864 11.15766,-1.4146 13.98594,-1.91773 18.208,-3.23904 l 1.32582,-0.41492 2.32977,-2.74546 c 16.88858,-19.90198 37.776,-32.18021 62.47952,-36.72729 1.6156,-0.29738 3.44523,-0.58592 4.06586,-0.64121 l 1.12842,-0.10053 -4.41941,2.27922 c -18.51605,9.54927 -32.51391,19.76912 -48.9478,35.73683 -2.22558,2.16245 -4.33376,4.11306 -4.68484,4.33469 -1.38475,0.87415 -2.80763,1.24443 -4.79206,1.24704 -1.02089,10e-4 -2.14419,-0.0589 -2.49623,-0.13386 -0.61651,-0.13129 -0.64421,-0.11561 -0.75253,0.42598 -0.0618,0.30927 -0.0887,0.58608 -0.0596,0.61514 0.0291,0.0291 0.64613,0.14627 1.37125,0.26045 0.86625,0.1364 2.53093,0.17358 4.85393,0.10842 1.94455,-0.0546 3.75673,-0.0554 4.02709,-0.002 0.28206,0.0558 1.18612,0.73439 2.12132,1.59219 10.35916,9.50177 20.82636,14.1595 35.92445,15.98581 2.73807,0.3312 4.15611,0.38727 10.16466,0.40188 3.84047,0.009 7.8975,-0.0395 9.01561,-0.10852 1.90495,-0.1176 1.48205,-0.0145 -6.71752,1.63681 -9.53253,1.91981 -12.70383,2.4916 -16.61729,2.99609 -3.07724,0.39669 -7.66946,0.5645 -9.67797,0.35365 z"
       id="path4816"
       inkscape:connector-curvature="0" />
    <path
       style="fill:#008200;fill-opacity:1;stroke:none"
       d="m 327.57357,799.91542 c -0.43752,-0.0951 -1.50622,-0.23064 -2.37489,-0.30121 l -1.57939,-0.1283 0.69551,-0.47132 c 0.38253,-0.25923 2.53202,-2.25253 4.77665,-4.42956 17.92333,-17.38354 34.35735,-28.92739 54.52033,-38.29704 l 4.15425,-1.93047 6.0988,-1.42305 c 16.4532,-3.83907 23.68793,-4.73505 40.9238,-5.06816 2.81834,-0.0545 3.11699,-0.0379 1.85616,0.10323 -15.45385,1.72933 -30.75768,6.59414 -41.7193,13.2618 -0.92366,0.56184 -3.09783,1.62575 -4.83149,2.36425 -10.57236,4.50361 -21.77791,11.22575 -33.88261,20.32595 -1.31256,0.98678 -3.18198,2.33974 -4.15425,3.00658 -0.97227,0.66683 -2.91179,2.17415 -4.31004,3.34958 -8.42419,7.08174 -10.1537,8.24578 -13.82146,9.30244 -1.50348,0.43314 -5.04242,0.61994 -6.35207,0.33528 l 0,0 z"
       id="path4818"
       inkscape:connector-curvature="0" />
    <path
       style="fill:#008200;fill-opacity:1;stroke:none"
       d="m 369.11609,817.60063 c -15.69734,-0.82433 -27.56489,-5.12277 -37.92344,-13.73592 -3.19264,-2.65467 -3.1428,-2.4464 -0.6179,-2.58216 l 2.12265,-0.11413 3.27757,1.33156 c 32.19678,13.08045 47.98664,14.33056 81.47418,6.45045 0.86659,-0.20392 1.64336,-0.34819 1.72617,-0.32058 0.21675,0.0722 -7.65664,3.01271 -11.6103,4.33608 -6.79177,2.27334 -10.29386,3.03519 -17.66412,3.84266 -6.88657,0.75448 -15.35494,1.07718 -20.78481,0.79204 z"
       id="path4820"
       inkscape:connector-curvature="0" />
    <path
       style="fill:#004f00;fill-opacity:1;stroke:none"
       d="m 550.89918,797.57516 c 0.17699,-0.11581 1.15198,-0.73828 2.16664,-1.38326 6.83413,-4.34418 12.23989,-9.02989 25.16976,-21.81716 12.016,-11.88347 16.15259,-15.47869 22.64781,-19.6838 1.20816,-0.78218 2.35576,-1.54837 2.55021,-1.70265 0.19446,-0.15427 1.0695,-0.68255 1.94455,-1.17395 5.73207,-3.21898 11.01591,-7.91311 15.74433,-13.98717 l 1.54204,-1.98087 -0.12408,0.88388 c -0.49517,3.52747 -3.29306,8.93389 -7.22726,13.96536 -4.576,5.85229 -11.36005,12.62711 -19.21581,19.18967 -14.39825,12.02805 -31.78758,22.96972 -43.29107,27.2395 -1.84745,0.68573 -2.50347,0.84067 -1.90712,0.45045 z"
       id="path4822"
       inkscape:connector-curvature="0" />
    <path
       style="fill:#004f00;fill-opacity:1;stroke:none"
       d="m 531.66712,803.75865 c 0.19178,-0.12929 0.82599,-0.50138 1.40936,-0.82687 2.93524,-1.63774 6.86587,-4.33811 10.16466,-6.98318 3.12508,-2.5058 6.90598,-5.97441 14.05374,-12.89296 9.95119,-9.63207 14.71239,-13.71567 20.77127,-17.81517 4.58885,-3.10486 9.59498,-5.88389 14.4073,-7.99786 1.88948,-0.83002 4.86738,-1.91539 4.97097,-1.8118 0.0282,0.0282 -0.76052,0.65748 -1.75273,1.39837 -4.8328,3.60867 -8.46374,6.91553 -18.69253,17.02411 -8.44888,8.34959 -11.7142,11.41775 -15.63841,14.69419 -9.28398,7.75147 -17.40723,12.13747 -27.66555,14.93751 -2.0877,0.56984 -2.56246,0.6339 -2.02808,0.27366 z"
       id="path4824"
       inkscape:connector-curvature="0" />
    <path
       style="fill:#005400;fill-opacity:1;stroke:none"
       d="m 497.82426,811.70321 c 0.0405,-0.0378 0.86915,-0.4027 1.84142,-0.81094 8.00433,-3.36089 18.64025,-10.52363 29.52171,-19.88133 4.1405,-3.5607 7.88315,-7.03843 14.20999,-13.20412 3.3236,-3.23895 6.52747,-6.22622 7.11971,-6.63837 2.45607,-1.70923 4.71052,-2.685 11.63799,-5.03711 6.92056,-2.34976 9.78824,-3.7407 12.57473,-6.09921 1.24515,-1.05391 0.93363,-0.97592 5.54604,-1.38844 1.84732,-0.16521 4.39291,-0.44967 5.65686,-0.63212 1.26395,-0.18244 2.37765,-0.33083 2.47487,-0.32974 0.0972,10e-4 -0.88524,0.5603 -2.18327,1.24269 -4.38083,2.30304 -8.89451,5.17206 -13.01952,8.27557 -4.36117,3.28118 -8.01286,6.54796 -16.61701,14.86552 -10.82582,10.46521 -14.71362,13.80003 -20.48552,17.57176 -3.32129,2.17035 -8.82711,5.11886 -9.99456,5.35235 -0.29933,0.0599 -0.54423,0.17256 -0.54423,0.25044 0,0.17398 -3.06575,1.37594 -5.92202,2.32178 -5.4975,1.82048 -11.15873,3.01607 -18.27994,3.86052 -2.95181,0.35003 -3.67293,0.40726 -3.53725,0.28075 l 0,0 z"
       id="path4826"
       inkscape:connector-curvature="0" />
    <path
       style="fill:#005f00;fill-opacity:1;stroke:none"
       d="m 481.45768,813.25591 c -1.37987,-0.20391 -3.09359,-0.64097 -3.09359,-0.78897 0,-0.0906 0.12221,-0.16472 0.27158,-0.16472 0.41632,0 5.58709,-1.8001 7.77176,-2.70559 7.91097,-3.27888 15.44713,-7.87916 22.62365,-13.81009 3.45095,-2.852 9.9185,-8.88963 17.15111,-16.011 5.57992,-5.49411 7.18837,-6.97539 9.94295,-9.15682 6.07179,-4.80843 12.90168,-7.97429 20.15425,-9.34209 1.39626,-0.26333 1.62198,-0.35327 1.53941,-0.61341 -0.0621,-0.19568 0.0167,-0.33931 0.22,-0.40113 0.43828,-0.13324 14.62523,-1.02802 15.21714,-0.95975 0.45202,0.0521 0.41907,0.0981 -0.58148,0.81119 -1.38934,0.99017 -4.69635,2.66787 -6.80591,3.45276 -0.92365,0.34365 -3.57828,1.27203 -5.89916,2.06305 -5.73495,1.95463 -8.42375,3.19987 -10.80623,5.00459 -0.38891,0.2946 -2.37765,2.17872 -4.41942,4.18695 -5.11195,5.02795 -8.39116,8.15623 -11.49979,10.97048 -17.47505,15.82023 -31.68255,24.64878 -43.55204,27.0633 -1.6412,0.33385 -6.94226,0.59218 -8.23423,0.40125 z"
       id="path4828"
       inkscape:connector-curvature="0" />
    <path
       style="fill:#007a00;fill-opacity:1;stroke:none"
       d="m 455.58155,813.71133 c -1.10621,-0.0868 -2.04777,-0.19432 -2.09237,-0.23892 -0.0446,-0.0446 4.24133,-2.24511 9.52429,-4.89002 12.68732,-6.35191 16.9671,-8.69018 22.15652,-12.10527 6.01847,-3.96068 10.9215,-8.17098 14.55992,-12.5028 l 1.29872,-1.54624 3.20761,-1.57356 c 3.75112,-1.84019 5.81475,-3.16988 7.89235,-5.08539 5.25449,-4.84456 12.81465,-9.05116 19.945,-11.09776 4.70719,-1.35108 10.85716,-2.60887 16.53396,-3.38152 3.84135,-0.52283 4.30815,-0.52406 2.58854,-0.007 -5.1281,1.54249 -10.00426,4.0267 -14.57363,7.42469 -3.06668,2.28051 -5.84936,4.7928 -11.86005,10.7076 -5.23738,5.15382 -9.54116,9.27642 -12.44442,11.92055 -13.94108,12.69672 -29.51287,20.30006 -45.26761,22.10313 -2.9874,0.34189 -8.8181,0.48035 -11.46883,0.27233 z"
       id="path4830"
       inkscape:connector-curvature="0" />
    <path
       style="fill:#005000;fill-opacity:1;stroke:none"
       d="m 551.74115,797.20582 c 0.0405,-0.0387 1.1477,-0.78022 2.46041,-1.6478 6.14263,-4.05971 10.2439,-7.61517 22.18088,-19.22897 12.05309,-11.72676 14.34931,-13.86952 18.03555,-16.8302 2.45913,-1.9751 8.15862,-5.87247 11.72893,-8.02036 5.23833,-3.15136 10.22314,-7.58328 14.39702,-12.80017 2.00464,-2.50558 1.95369,-2.46295 1.80026,-1.5062 -0.534,3.33002 -3.74336,9.2252 -7.71226,14.16642 -11.84673,14.74901 -36.26521,33.64138 -55.39251,42.8567 -3.82412,1.84241 -8.05246,3.54011 -7.49828,3.01058 z"
       id="path4832"
       inkscape:connector-curvature="0" />
    <path
       style="fill:#005000;fill-opacity:1;stroke:none"
       d="m 532.28098,803.56725 c 0,-0.0401 0.65629,-0.44977 1.45841,-0.91036 3.57745,-2.05421 8.8859,-5.93518 12.68373,-9.27299 1.02088,-0.89723 5.43588,-5.02786 9.8111,-9.17919 4.37523,-4.15132 9.10842,-8.58057 10.51822,-9.84277 7.51629,-6.7294 14.39852,-11.46602 22.35345,-15.38453 2.8352,-1.39659 7.47619,-3.34827 7.62001,-3.20445 0.0365,0.0365 -0.90233,0.81819 -2.08628,1.7371 -4.52108,3.50903 -5.53892,4.44586 -18.25291,16.80033 -4.86133,4.72386 -9.9127,9.5655 -11.22526,10.7592 -7.76586,7.06257 -15.24492,12.1125 -22.51601,15.20303 -3.88823,1.65266 -10.36446,3.71131 -10.36446,3.29463 z"
       id="path4834"
       inkscape:connector-curvature="0" />
    <path
       style="fill:#005800;fill-opacity:1;stroke:none"
       d="m 532.28098,803.57355 c 0,-0.0366 0.77561,-0.52583 1.72357,-1.08711 3.3812,-2.00197 7.54089,-4.98315 10.91597,-7.82328 2.02488,-1.70394 3.56687,-3.13473 12.99663,-12.05942 3.74963,-3.5488 7.84824,-7.37244 9.10803,-8.49698 7.35399,-6.56453 14.09035,-11.17898 22.08071,-15.12542 2.81606,-1.39086 7.47489,-3.35351 7.61878,-3.20962 0.0358,0.0358 -0.94584,0.85666 -2.18144,1.8241 -4.51392,3.53425 -5.78382,4.70427 -18.42163,16.97263 -9.9347,9.64428 -11.07317,10.7116 -14.4073,13.5069 -9.2733,7.77461 -17.06073,12.114 -26.83956,14.95579 -1.96279,0.5704 -2.59376,0.70235 -2.59376,0.54241 z"
       id="path4836"
       inkscape:connector-curvature="0" />
    <path
       style="fill:#006000;fill-opacity:1;stroke:none"
       d="m 498.87019,811.3877 c 0.24306,-0.11742 1.63518,-0.78205 3.09359,-1.47696 7.21633,-3.43846 16.22014,-9.54079 25.27865,-17.13261 3.72095,-3.11847 7.25132,-6.34151 14.23094,-12.99207 8.26671,-7.87696 8.58024,-8.16092 10.05241,-9.10432 2.03012,-1.30093 3.68998,-1.98448 12.23323,-5.03773 5.71942,-2.04405 8.45982,-3.39564 10.7716,-5.31266 1.27719,-1.05909 1.66716,-1.18319 4.6848,-1.49089 2.91581,-0.2973 6.7116,-0.73124 7.95474,-0.90938 0.57515,-0.0824 0.0638,0.26664 -2.74004,1.87057 -6.33507,3.6239 -11.10367,6.94676 -16.08668,11.20952 -2.51391,2.15055 -5.18338,4.63137 -12.28383,11.41579 -9.57368,9.14755 -13.05306,12.20811 -17.33877,15.25168 -10.45227,7.42287 -21.14562,11.46836 -35.34284,13.37083 -1.45841,0.19544 -3.16872,0.39952 -3.8007,0.45353 -0.98051,0.0838 -1.08422,0.0669 -0.7071,-0.1153 l 0,0 z"
       id="path4838"
       inkscape:connector-curvature="0" />
    <path
       style="fill:#004400;fill-opacity:1;stroke:none"
       d="m 551.74115,797.20848 c 0.0405,-0.0372 1.14757,-0.7841 2.46014,-1.65969 6.40198,-4.27061 10.09566,-7.49279 23.24614,-20.27873 9.45754,-9.19538 13.78938,-13.22495 16.86112,-15.6846 2.79055,-2.23449 7.30802,-5.3556 11.0696,-7.64795 4.87383,-2.97019 7.52362,-5.06204 11.2322,-8.86716 1.21913,-1.25087 2.9232,-3.14935 3.78682,-4.21885 2.19026,-2.71237 2.10023,-2.63472 1.94703,-1.67938 -0.19275,1.20198 -1.08212,3.59428 -2.06257,5.54809 -2.68479,5.35017 -6.51298,10.22842 -13.47477,17.17089 -13.34094,13.30391 -32.28108,26.95175 -47.70777,34.37716 -3.67103,1.76699 -7.9352,3.47095 -7.35794,2.94022 z"
       id="path4846"
       inkscape:connector-curvature="0" />
    <path
       style="fill:#004f00;fill-opacity:1;stroke:none"
       d="m 533.40609,802.88531 c 4.54977,-2.80353 8.73108,-5.82545 12.22153,-8.83274 1.0695,-0.92146 4.29538,-3.89429 7.16862,-6.6063 8.43339,-7.96016 13.04035,-12.26317 14.93957,-13.95392 5.48527,-4.88318 11.68484,-9.29073 17.86204,-12.69889 3.38483,-1.86753 10.28811,-4.98294 10.7214,-4.83851 0.0971,0.0324 -0.96713,0.9771 -2.36496,2.09941 -3.93579,3.16002 -6.72289,5.73431 -17.30236,15.98124 -10.61306,10.27946 -12.05606,11.63073 -15.32168,14.34768 -7.33614,6.10355 -13.49708,9.87566 -20.74528,12.70152 -2.45113,0.95563 -7.53939,2.55862 -8.10002,2.55181 -0.16079,-0.002 0.25372,-0.34004 0.92114,-0.7513 z"
       id="path4848"
       inkscape:connector-curvature="0" />
    <path
       style="fill:#005700;fill-opacity:1;stroke:none"
       d="m 501.61023,810.1214 c 8.21702,-4.03219 17.14607,-10.1246 26.5165,-18.09254 3.47566,-2.95545 6.03571,-5.30164 13.96536,-12.79867 3.98631,-3.76884 7.6298,-7.16488 8.09664,-7.54676 1.98435,-1.62322 4.38379,-2.71168 12.14429,-5.50904 6.33566,-2.28376 8.89308,-3.43471 10.99534,-4.94835 0.41817,-0.30109 1.14361,-0.82254 1.61209,-1.15877 0.46848,-0.33624 1.14465,-0.69298 1.5026,-0.79276 0.75238,-0.20972 10.19719,-1.28727 10.58472,-1.2076 0.14246,0.0293 -1.1144,0.84875 -2.79302,1.82102 -5.0635,2.93284 -9.55914,5.96958 -13.32806,9.00294 -3.53717,2.84684 -6.02611,5.11088 -14.7287,13.39779 -12.43303,11.83919 -16.26111,14.98808 -23.10151,19.00272 -8.02553,4.7102 -16.55643,7.65342 -26.99858,9.31469 -2.36176,0.37574 -3.4033,0.51545 -6.76577,0.90757 -0.55596,0.0648 -0.0647,-0.23276 2.2981,-1.39224 z"
       id="path4850"
       inkscape:connector-curvature="0" />
    <path
       style="fill:#006700;fill-opacity:1;stroke:none"
       d="m 479.99927,812.89218 c -0.70489,-0.15371 -1.28163,-0.33629 -1.28163,-0.40573 0,-0.0694 0.48448,-0.26096 1.07662,-0.42559 1.91793,-0.53323 7.08684,-2.53331 9.80072,-3.79233 5.56806,-2.58312 10.49625,-5.5544 15.90433,-9.58896 4.26232,-3.1798 8.80004,-7.25423 18.01607,-16.17669 8.10443,-7.84627 10.07587,-9.68917 12.12436,-11.33387 6.06217,-4.86721 12.04011,-7.80258 19.37802,-9.51526 1.90417,-0.44444 2.69981,-0.7083 2.89365,-0.95964 0.23699,-0.30729 0.68896,-0.37788 3.97967,-0.62159 4.50738,-0.33383 9.40752,-0.6225 10.60603,-0.62482 l 0.88332,-0.002 -0.88332,0.63421 c -1.7694,1.27041 -6.07971,3.19828 -11.04797,4.94142 -6.88459,2.4155 -9.2164,3.42411 -11.53128,4.9878 -0.55719,0.37637 -3.65962,3.23217 -6.89429,6.3462 -7.26874,6.99765 -8.54241,8.18383 -12.86391,11.98018 -14.52448,12.75948 -26.41048,20.31177 -37.00767,23.51444 -3.09388,0.93503 -4.73316,1.17636 -8.51233,1.25316 -2.60685,0.053 -3.64567,0.006 -4.64039,-0.21122 z"
       id="path4852"
       inkscape:connector-curvature="0" />
    <path
       style="fill:#007a00;fill-opacity:1;stroke:none"
       d="m 454.98537,813.5865 c -0.46183,-0.0364 -0.83969,-0.1345 -0.83969,-0.21796 0,-0.0835 3.32119,-1.83835 7.38043,-3.89976 9.75877,-4.95582 15.16887,-7.78786 18.06991,-9.45913 8.29827,-4.78057 15.19784,-10.2141 20.02531,-15.77027 l 1.42032,-1.63472 3.27051,-1.68032 c 3.95454,-2.03175 5.46568,-3.02137 8.32461,-5.45165 6.84542,-5.81906 13.4037,-9.16906 22.54343,-11.51532 4.046,-1.03864 13.58731,-2.75908 15.16507,-2.73448 0.45101,0.007 0.15891,0.16231 -1.2705,0.67542 -6.1246,2.19851 -11.78916,5.70215 -17.33037,10.71915 -0.72577,0.65711 -4.46178,4.23145 -8.30225,7.94297 -10.67496,10.31653 -13.08441,12.52528 -17.05895,15.63802 -13.2831,10.40289 -27.6047,16.33035 -41.89608,17.34003 -2.34092,0.16539 -7.67162,0.19232 -9.50175,0.048 z"
       id="path4854"
       inkscape:connector-curvature="0" />
    <path
       style="fill:#009500;fill-opacity:1;stroke:none"
       d="m 422.23749,814.12705 c -2.00963,-0.069 -6.83318,-0.37885 -9.63398,-0.61886 -1.94384,-0.16657 -2.28789,-0.23537 -1.85615,-0.37114 0.29149,-0.0917 4.03015,-1.47933 8.30815,-3.0837 9.6312,-3.61197 11.9488,-4.43222 15.14928,-5.36169 1.39062,-0.40385 2.6903,-0.83607 2.88819,-0.96049 0.19789,-0.12441 2.66392,-0.91719 5.48008,-1.76172 27.35547,-8.2036 43.22371,-13.4056 53.63798,-17.58384 1.21121,-0.48594 2.22265,-0.86308 2.24764,-0.83809 0.12402,0.12402 -3.46443,3.76126 -5.30214,5.37422 -6.85477,6.01645 -13.30156,9.90839 -31.40946,18.96199 l -9.63433,4.81697 -1.85615,0.24562 c -7.94958,1.05193 -18.64453,1.50262 -28.01911,1.18073 z"
       id="path4856"
       inkscape:connector-curvature="0" />
    <path
       style="fill:#00f700;fill-opacity:1;stroke:none"
       d="m 413.68204,807.24637 c 0.19446,-0.0941 1.34793,-0.56286 2.56327,-1.04158 5.71012,-2.24922 11.2409,-5.04597 21.03642,-10.6375 11.12574,-6.35085 14.60473,-8.23138 19.53383,-10.55885 12.86413,-6.07432 23.89041,-8.70248 36.52291,-8.70541 5.08358,-0.001 12.30636,0.59232 13.93144,1.14476 l 0.60333,0.20509 -3.37194,1.71112 c -1.85456,0.94111 -3.53143,1.71111 -3.72638,1.71111 -0.19494,0 -0.38096,0.0689 -0.41337,0.15318 -0.062,0.16108 -2.85134,1.35922 -6.42289,2.75887 -9.76513,3.82684 -25.67995,9.02779 -49.23231,16.08908 -2.47929,0.74332 -6.81474,2.05882 -9.63433,2.92332 -5.8453,1.79221 -12.32951,3.52596 -13.56664,3.62744 -0.4613,0.0379 -1.77386,0.18641 -2.91681,0.33014 -2.86899,0.3608 -5.3573,0.50748 -4.90653,0.28923 z"
       id="path4858"
       inkscape:connector-curvature="0" />
    <path
       style="fill:#00ab00;fill-opacity:1;stroke:none"
       d="m 394.94371,807.58571 c -1.36118,-0.0702 -2.87262,-0.1474 -3.35875,-0.17145 -0.87792,-0.0434 -0.87435,-0.0454 0.53033,-0.29887 3.12735,-0.56428 6.50527,-1.70293 8.1501,-2.74729 0.39901,-0.25335 1.6718,-1.3262 2.82843,-2.38412 13.34524,-12.20642 36.77599,-27.38773 53.54496,-34.693 20.33156,-8.85729 35.01117,-10.27313 44.81289,-4.3222 0.88469,0.53712 1.19521,0.61458 3.44715,0.85988 1.36118,0.14827 4.34295,0.39473 6.62616,0.54768 6.10375,0.4089 9.19838,0.8715 11.46842,1.71435 l 0.94725,0.3517 -1.93406,1.01834 c -4.01816,2.11568 -7.48196,4.51377 -10.79892,7.47642 -1.00285,0.89572 -1.9308,1.68872 -2.06212,1.76221 -0.13173,0.0737 -0.58446,-0.0146 -1.00989,-0.19693 -2.24689,-0.96313 -13.25393,-1.68308 -19.5003,-1.27547 -13.24899,0.86455 -24.22254,4.22863 -38.62571,11.84118 -1.7987,0.95067 -6.77054,3.71684 -11.04854,6.14705 -10.8576,6.16788 -14.4904,8.10498 -18.87675,10.06558 -2.51897,1.12591 -6.64722,2.75844 -8.43525,3.33572 -0.82643,0.26683 -1.60539,0.61527 -1.73103,0.77432 -0.20315,0.2572 -0.90726,0.29104 -6.36396,0.30592 -3.37454,0.009 -7.24923,-0.0408 -8.61041,-0.11102 z"
       id="path4860"
       inkscape:connector-curvature="0" />
    <path
       style="fill:#008000;fill-opacity:1;stroke:none"
       d="m 381.21079,806.52186 c -0.84443,-0.0751 -1.71771,-0.19447 -1.94061,-0.26521 -0.22291,-0.0708 -1.08322,-0.15043 -1.91182,-0.17708 -1.70168,-0.0547 -8.64876,-0.9476 -15.97438,-2.05312 l -4.92191,-0.74278 1.56315,-0.3206 c 4.75144,-0.97452 9.38286,-2.92089 14.55624,-6.11731 3.99823,-2.47034 12.12488,-8.16799 14.4073,-10.10106 5.60879,-4.75029 14.84279,-11.02116 24.45704,-16.60893 16.73699,-9.72748 33.04833,-16.59889 45.8117,-19.29889 4.10527,-0.86845 7.07222,-1.24229 10.72744,-1.3517 4.85939,-0.14545 7.09248,0.14777 12.20934,1.60313 0.89935,0.2558 2.36978,0.6683 3.26762,0.91666 3.00055,0.83001 5.84984,2.10302 8.62061,3.8515 1.44922,0.91452 4.47978,3.29689 4.35396,3.42271 -0.052,0.052 -0.63531,-0.0344 -1.2962,-0.19195 -4.52307,-1.07853 -10.21699,-1.14421 -16.05085,-0.18514 -8.44257,1.38794 -18.01282,4.74886 -29.16815,10.2434 -5.33704,2.62876 -8.39971,4.29928 -13.87697,7.56917 -13.16386,7.85872 -25.57407,16.84647 -34.26202,24.81331 -1.93861,1.7777 -3.25183,2.54566 -5.82891,3.40869 -2.19781,0.73602 -5.84862,1.36138 -9.22977,1.58101 -3.16604,0.20566 -3.24724,0.20572 -5.51281,0.004 l 0,0 z"
       id="path4862"
       inkscape:connector-curvature="0" />
    <path
       style="fill:#005f00;fill-opacity:1;stroke:none"
       d="m 348.27467,802.52324 c -3.29504,-0.13147 -7.0329,-0.67287 -11.04855,-1.60029 -1.87675,-0.43344 -1.99219,-0.48349 -1.5026,-0.65148 0.94391,-0.32389 3.32672,-1.59169 4.5962,-2.44546 1.30377,-0.87683 2.78362,-2.06702 7.99184,-6.42755 1.75381,-1.46836 3.89486,-3.13665 4.7579,-3.70731 0.86304,-0.57067 2.52376,-1.76426 3.69049,-2.65243 11.42339,-8.69602 23.70833,-16.07857 33.92263,-20.38557 1.62832,-0.68661 3.81006,-1.75603 4.8483,-2.3765 11.34334,-6.77895 26.36985,-11.54944 41.281,-13.10556 6.45803,-0.67396 14.12066,-0.6959 19.71728,-0.0565 l 1.83493,0.20965 -2.45365,0.58287 c -13.33758,3.16834 -28.10751,9.41718 -44.34972,18.76343 -9.86641,5.67743 -20.08922,12.59398 -25.44166,17.21333 -2.37638,2.0509 -12.06833,8.73941 -15.74731,10.86737 -2.64203,1.52818 -5.81518,3.01825 -8.15238,3.82825 -3.36794,1.16723 -8.059,2.00635 -10.31429,1.84498 -0.68416,-0.0489 -1.24393,-0.0201 -1.24393,0.0642 0,0.0842 -0.25853,0.13759 -0.57452,0.11855 -0.31599,-0.019 -1.13137,-0.0568 -1.81196,-0.084 l 0,0 z"
       id="path4864"
       inkscape:connector-curvature="0" />
    <path
       style="fill:#004c00;fill-opacity:1;stroke:none"
       d="m 326.17758,799.63992 c -1.26395,-0.16973 -2.21498,-0.31945 -2.1134,-0.33271 0.10159,-0.0133 2.64717,-2.34084 5.65686,-5.17241 11.7712,-11.07457 19.80543,-17.62833 29.60217,-24.14737 6.37132,-4.23966 11.9851,-7.47717 19.18027,-11.0614 8.96895,-4.46784 8.6039,-4.32748 15.21136,-5.84868 15.97767,-3.67845 23.77179,-4.72875 36.84938,-4.96566 l 4.5078,-0.0817 -2.21957,0.33476 c -13.91623,2.09886 -26.15078,6.13785 -37.02648,12.22355 -1.4593,0.81658 -3.68668,1.95237 -4.94974,2.52398 -10.06286,4.55403 -15.94054,7.80286 -24.65873,13.62985 -6.15011,4.11056 -15.68612,11.11595 -20.30824,14.91893 -7.75554,6.38108 -9.93922,7.6534 -13.9818,8.14643 -1.94369,0.23705 -2.95643,0.20753 -5.74988,-0.16761 z"
       id="path4866"
       inkscape:connector-curvature="0" />
    <path
       style="fill:#003e00;fill-opacity:1;stroke:none"
       d="m 349.70947,823.48428 c -8.51503,-0.8981 -14.97149,-4.63717 -31.42641,-18.19967 l -4.00543,-3.30137 -3.06564,-0.12423 c -9.028,-0.36585 -21.99137,1.44193 -30.15224,4.20482 -5.63876,1.90902 -6.96379,2.73019 -12.4195,7.69684 -4.72247,4.29913 -8.89728,7.61953 -9.58022,7.61953 -0.42291,0 -1.02043,-1.23575 -1.02598,-2.12189 -0.0136,-2.17705 3.08046,-8.52653 5.28612,-10.84774 2.82306,-2.97095 7.14996,-4.88683 14.59858,-6.46403 1.36185,-0.28836 5.73707,-0.9687 9.72272,-1.51187 12.75671,-1.7385 13.74496,-1.88017 16.17386,-2.31854 1.31256,-0.23689 3.56114,-0.75717 4.99682,-1.15617 l 2.61035,-0.72546 1.44799,-1.70187 c 7.67052,-9.01539 15.11362,-15.84203 23.56078,-21.6094 12.07637,-8.24524 27.42497,-14.32738 41.63027,-16.4967 1.02089,-0.15591 2.0948,-0.32357 2.38649,-0.3726 0.36458,-0.0613 0.1436,0.11127 -0.70711,0.55212 -21.19006,10.9811 -33.1896,19.57584 -51.17685,36.6557 -2.4793,2.35423 -4.85789,4.5251 -5.28577,4.82416 -1.37701,0.96247 -2.6033,1.23752 -5.44022,1.22021 l -2.50587,-0.0153 -0.11841,0.53911 c -0.0651,0.2965 -0.0861,0.57138 -0.0467,0.61083 0.23831,0.23831 3.04804,0.42688 6.41427,0.43048 4.54064,0.005 3.98321,-0.18761 6.89429,2.38042 9.43572,8.32381 19.00671,12.74018 31.8198,14.68274 4.97692,0.75454 5.95934,0.81039 14.21023,0.80779 4.41267,-0.001 7.9924,0.028 7.95495,0.0653 -0.0824,0.0821 -12.19172,2.51399 -16.33053,3.27958 -4.3755,0.80936 -7.55432,1.22407 -10.84976,1.41545 -3.28492,0.19077 -3.59848,0.18974 -5.5709,-0.0183 l 0,10e-6 z"
       id="path4868"
       inkscape:connector-curvature="0" />
    <path
       style="fill:#008a00;fill-opacity:1;stroke:none"
       d="m 377.26604,812.52702 c -10.20318,-0.80721 -20.10584,-3.23812 -33.18999,-8.14747 -2.11478,-0.7935 -3.81347,-1.47431 -3.77486,-1.51292 0.0386,-0.0386 0.53587,0.0127 1.10502,0.11404 2.3019,0.40984 5.76668,0.71874 8.07877,0.72025 1.88347,10e-4 3.16716,0.122 5.56846,0.52386 19.5833,3.27728 38.64877,5.02748 51.29237,4.70862 2.47929,-0.0625 5.02488,-0.14978 5.65686,-0.1939 1.56895,-0.10954 0.97482,0.0428 -4.50781,1.1562 -5.24927,1.06596 -9.94305,1.80283 -14.61544,2.29445 -3.9756,0.41831 -12.31085,0.59815 -15.61338,0.33687 z"
       id="path4870"
       inkscape:connector-curvature="0" />
    <path
       style="fill:#00bb00;fill-opacity:1;stroke:none"
       d="m 417.30597,805.87573 c 4.82585,-1.99761 12.00054,-5.69908 22.53902,-11.62801 5.15305,-2.8991 10.88061,-6.0503 12.72793,-7.00267 10.34709,-5.33437 19.83821,-8.61008 28.90299,-9.9754 6.68764,-1.00728 16.30093,-1.07476 23.27701,-0.16339 3.02783,0.39557 3.03586,0.40409 1.27914,1.35703 -0.81774,0.44359 -2.40161,1.2196 -3.51973,1.72446 -1.11811,0.50487 -2.45199,1.11294 -2.96418,1.35127 -3.24498,1.50996 -10.94713,4.39378 -19.30968,7.22988 -14.57681,4.94363 -50.63345,15.96542 -56.62613,17.30947 -1.85046,0.41503 -7.66939,1.15639 -9.04641,1.15257 -0.35297,-10e-4 0.56342,-0.45422 2.74004,-1.35521 z"
       id="path4872"
       inkscape:connector-curvature="0" />
    <path
       style="fill:#754e00;fill-opacity:1;stroke:none"
       d="m 297.51992,62.345086 c 6.30993,-4.275171 9.22832,-6.797068 21.06399,-18.202187 10.42989,-10.050484 11.56822,-11.137657 14.08498,-13.451955 5.01311,-4.609829 8.94278,-7.52992 16.409,-12.193345 5.96909,-3.728309 9.95502,-7.243508 14.58408,-12.8616978 1.22313,-1.4844932 1.78401,-2.048322 1.82049,-1.830071 0.10089,0.6036244 -1.03734,3.7097088 -2.2206,6.0597237 -2.77452,5.5103641 -6.83794,10.5487821 -14.62438,18.1334551 -13.06646,12.727875 -30.96821,25.578594 -45.60992,32.740955 -3.4133,1.669704 -7.37909,3.366078 -7.86922,3.366078 -0.13062,0 0.93209,-0.79243 2.36158,-1.760956 z"
       id="path4874"
       inkscape:connector-curvature="0"
       transform="translate(256.83415,733.11218)" />
    <path
       style="fill:#855800;fill-opacity:1;stroke:none"
       d="m 275.71895,70.33742 c 0.002,-0.07292 0.53882,-0.443409 1.19324,-0.823307 1.80687,-1.048908 5.20527,-3.342075 7.37704,-4.977864 3.89181,-2.931332 5.04793,-3.964711 15.9099,-14.220881 8.56159,-8.084081 10.98517,-10.291609 14.06789,-12.813784 7.51017,-6.144569 15.90067,-11.142415 24.16007,-14.391089 1.4412,-0.566867 1.16161,-0.11461 -0.97328,1.574344 -4.21506,3.334616 -5.5449,4.562383 -17.80924,16.44235 -9.25003,8.960127 -10.90926,10.530791 -13.41327,12.697364 -9.64505,8.345278 -17.58389,12.899543 -27.91855,16.01599 -2.12759,0.641579 -2.59981,0.73204 -2.5938,0.496877 z"
       id="path4876"
       inkscape:connector-curvature="0"
       transform="translate(256.83415,733.11218)" />
    <path
       style="fill:#986500;fill-opacity:1;stroke:none"
       d="m 242.38742,78.257453 c 0.0569,-0.09213 1.47364,-0.841716 3.14822,-1.665755 6.27751,-3.089075 13.42744,-7.774103 20.89914,-13.694284 5.00461,-3.965386 9.81189,-8.236891 17.22172,-15.30234 10.3125,-9.833234 10.11796,-9.667193 13.0071,-11.101493 1.97478,-0.980372 3.34304,-1.517622 8.48528,-3.331773 7.05743,-2.489818 9.61979,-3.696642 12.38354,-5.832409 0.7487,-0.578576 1.64954,-1.127833 2.00187,-1.220573 0.35234,-0.09274 1.9134,-0.298906 3.46904,-0.458149 1.55563,-0.159244 3.6724,-0.385769 4.70392,-0.503389 1.87955,-0.214318 2.27876,-0.203139 2.27876,0.06381 0,0.07878 -1.13358,0.781 -2.51907,1.560481 -4.5032,2.533521 -9.00204,5.545604 -12.94889,8.669606 -3.59954,2.849096 -5.81137,4.858887 -15.9983,14.536946 -9.98808,9.489149 -12.56714,11.743409 -16.98033,14.841876 -5.85287,4.109254 -11.90861,7.197303 -18.28662,9.325026 -5.49592,1.833459 -10.31504,2.919216 -17.03014,3.83692 -3.59062,0.490704 -3.98579,0.519091 -3.83524,0.2755 z"
       id="path4878"
       inkscape:connector-curvature="0"
       transform="translate(256.83415,733.11218)" />
    <path
       style="fill:#ae7300;fill-opacity:1;stroke:none"
       d="m 223.47805,79.834184 c -0.38891,-0.09365 -0.8976,-0.214796 -1.13043,-0.26921 -0.58309,-0.136271 -0.31753,-0.321339 1.13043,-0.787789 10.65019,-3.430882 20.88674,-9.254156 29.91716,-17.018989 3.22042,-2.76909 5.85339,-5.227441 14.54218,-13.577741 8.39155,-8.064651 9.89012,-9.427849 12.59576,-11.457949 2.45081,-1.838905 4.50913,-3.082747 7.64517,-4.619982 3.37209,-1.652943 5.4954,-2.414305 9.62439,-3.451042 1.83573,-0.460928 3.14176,-0.878089 3.22723,-1.030815 0.1871,-0.334341 0.63546,-0.415226 3.50022,-0.631451 2.40881,-0.18181 11.10166,-0.707947 11.75509,-0.711479 0.49905,-0.0027 -0.98044,1.022713 -2.89379,2.005634 -2.29967,1.181381 -4.61599,2.125498 -9.39163,3.82797 -6.41445,2.286695 -8.6075,3.239062 -10.65156,4.62561 -1.13145,0.767501 -2.08239,1.643427 -9.85453,9.077177 -7.45477,7.130192 -11.57288,10.802249 -17.10929,15.256096 -11.08205,8.915122 -20.23553,14.398995 -28.77295,17.237941 -4.00124,1.330529 -5.25953,1.542945 -9.62565,1.624931 -2.10988,0.03962 -4.11527,-0.0044 -4.5078,-0.09891 z"
       id="path4880"
       inkscape:connector-curvature="0"
       transform="translate(256.83415,733.11218)" />
    <path
       style="fill:#c17f00;fill-opacity:1;stroke:none"
       d="m 197.66865,80.399162 c -0.69193,-0.11552 -0.52882,-0.20867 7.6014,-4.340932 13.2777,-6.748517 16.97672,-8.740594 21.25685,-11.447707 6.60483,-4.17744 12.67477,-9.21894 16.3082,-13.545081 1.26962,-1.511677 1.412,-1.621526 3.35875,-2.59141 4.74087,-2.361926 6.21773,-3.296618 9.36917,-5.929683 2.67889,-2.23825 3.79705,-3.082017 5.92202,-4.468774 4.50453,-2.939674 9.26674,-5.112131 14.43837,-6.586592 4.23902,-1.208571 13.461,-3.02282 17.02788,-3.349913 l 1.23744,-0.113477 -2.47488,0.951699 c -4.85354,1.866402 -9.66058,4.644308 -13.73832,7.939146 -2.43767,1.969652 -4.82458,4.185941 -12.07284,11.209825 -10.38408,10.062644 -13.25955,12.653004 -18.03568,16.247388 -11.54979,8.692057 -23.79521,13.948673 -36.67494,15.743531 -2.1526,0.299976 -12.16514,0.508751 -13.52342,0.28198 l 0,0 z"
       id="path4882"
       inkscape:connector-curvature="0"
       transform="translate(256.83415,733.11218)" />
    <path
       style="fill:#d98e00;fill-opacity:1;stroke:none"
       d="m 165.67207,80.89724 c -3.32415,-0.114546 -11.5882,-0.65449 -11.69539,-0.764135 -0.0155,-0.01583 4.1211,-1.562344 9.19239,-3.436711 10.34742,-3.824449 17.06733,-6.051634 32.11309,-10.643279 20.23599,-6.175588 33.99298,-10.732211 42.94024,-14.222769 1.40072,-0.546456 2.63359,-0.964614 2.73971,-0.92924 0.26906,0.08968 -3.78724,4.03839 -6.37124,6.202256 -6.27443,5.254261 -11.40245,8.275581 -30.25647,17.82649 l -9.06738,4.593274 -3.74893,0.419069 c -7.57409,0.846656 -17.90895,1.228543 -25.84602,0.955045 z"
       id="path4884"
       inkscape:connector-curvature="0"
       transform="translate(256.83415,733.11218)" />
    <path
       style="fill:#a36a00;fill-opacity:1;stroke:none"
       d="m 157.99701,73.939984 c 0.0405,-0.03605 0.9487,-0.442092 2.0182,-0.902303 4.70669,-2.025317 12.33904,-5.878195 18.71427,-9.447131 18.77562,-10.51082 24.50545,-13.322761 32.81614,-16.104671 9.27516,-3.104755 17.28479,-4.266295 27.57716,-3.999185 4.86959,0.126377 9.36093,0.516905 10.86062,0.944345 0.33869,0.09653 0.33869,0.100386 0,0.355021 -1.47405,1.108229 -10.59714,5.099634 -16.72929,7.319165 -16.7012,6.045001 -60.53292,19.651746 -67.67043,21.007034 -2.32488,0.441454 -7.82717,1.041768 -7.58667,0.827725 z"
       id="path4886"
       inkscape:connector-curvature="0"
       transform="translate(256.83415,733.11218)" />
    <path
       style="fill:#cb8400;fill-opacity:1;stroke:none"
       d="m 139.12565,74.378155 c -1.961,-0.0591 -3.61142,-0.153619 -3.66759,-0.210044 -0.0562,-0.05642 0.51709,-0.235656 1.27392,-0.398292 1.91211,-0.410889 3.93875,-1.089904 5.60556,-1.878108 1.10658,-0.523276 1.97181,-1.159572 3.97748,-2.925062 8.63613,-7.601951 18.16502,-14.63571 28.93134,-21.355697 19.70454,-12.298926 36.12063,-19.161528 50.19222,-20.982408 2.24043,-0.289915 7.66014,-0.252169 9.70673,0.0676 3.44517,0.538294 5.92343,1.356109 8.71824,2.876975 1.7983,0.978597 2.66148,1.132196 9.22459,1.641479 5.49659,0.426523 7.49685,0.636602 9.54595,1.002568 1.69502,0.30273 4.0688,0.95332 4.06015,1.112782 -0.003,0.05793 -0.88923,0.582632 -1.96907,1.165995 -3.70158,1.999697 -6.74172,4.117937 -10.43756,7.272449 -1.0663,0.910126 -2.07124,1.654774 -2.23318,1.654774 -0.16195,0 -0.57234,-0.0826 -0.912,-0.18356 -2.2802,-0.677766 -6.50591,-1.057096 -13.10315,-1.176233 -5.8851,-0.106277 -8.16442,0.01298 -12.88185,0.673972 -7.89374,1.106053 -15.64754,3.414557 -23.67537,7.048768 -4.26355,1.930115 -8.80438,4.328792 -20.07687,10.605542 -15.05253,8.381556 -17.30416,9.503008 -24.67948,12.291908 -1.61477,0.61061 -3.20577,1.252539 -3.53553,1.42651 -0.53033,0.279776 -1.17132,0.319731 -5.54933,0.345924 -2.72237,0.01628 -6.55421,-0.01874 -8.5152,-0.07784 z"
       id="path4888"
       inkscape:connector-curvature="0"
       transform="translate(256.83415,733.11218)" />
    <path
       style="fill:#ec9900;fill-opacity:1;stroke:none"
       d="m 124.39471,73.292045 c -0.63198,-0.07313 -2.50087,-0.263539 -4.15309,-0.423128 -3.19023,-0.308146 -6.55045,-0.745587 -14.40846,-1.875723 -2.67375,-0.384537 -4.97671,-0.699341 -5.11769,-0.699563 -0.58515,-9.25e-4 0.15101,-0.317838 1.2286,-0.528902 3.19777,-0.626339 7.94884,-2.571882 12.1528,-4.976519 4.2796,-2.447901 12.01208,-7.812428 17.01535,-11.804668 15.20736,-12.134331 38.35663,-25.030106 56.39177,-31.414182 6.14984,-2.176921 12.69148,-3.870709 17.94283,-4.645832 2.25901,-0.33344 7.04365,-0.579798 9.01562,-0.464208 2.50102,0.146601 4.543,0.488529 7.51301,1.258049 7.32757,1.898553 10.65018,3.275614 14.4073,5.971141 1.46133,1.048427 2.95281,2.256689 2.87801,2.331497 -0.0291,0.02913 -0.56928,-0.05924 -1.20032,-0.196363 -11.87515,-2.580482 -27.40467,1.146788 -47.46286,11.391646 -15.5479,7.941204 -32.00892,19.069171 -44.72443,30.234585 -2.71412,2.383252 -3.87059,3.166879 -5.71058,3.869508 -4.04943,1.546327 -11.45053,2.472254 -15.76786,1.972662 z"
       id="path4890"
       inkscape:connector-curvature="0"
       transform="translate(256.83415,733.11218)" />
    <path
       style="fill:#ffad16;fill-opacity:1;stroke:none"
       d="M 90.807138,69.298263 C 87.153779,69.03314 79.94111,67.832194 79.105006,67.349797 c -0.06779,-0.03911 0.720068,-0.507459 1.750801,-1.040766 2.292975,-1.186401 3.786784,-2.250284 7.809627,-5.561978 5.26653,-4.335526 5.626768,-4.615839 10.450208,-8.131647 5.806728,-4.232524 8.239218,-5.95625 11.232178,-7.95939 7.10865,-4.757715 15.24246,-9.314311 22.09023,-12.375041 3.37604,-1.508979 5.56463,-2.601071 8.45751,-4.220228 9.97627,-5.583767 23.11426,-9.783047 36.00183,-11.507224 7.5464,-1.009603 16.47111,-1.173543 22.98097,-0.422144 l 0.97227,0.112224 -3.53553,0.921351 c -14.43502,3.761728 -30.12465,10.732996 -46.84583,20.814691 -6.60202,3.980556 -15.04005,9.705153 -19.05141,12.925017 -4.71047,3.781034 -7.20121,5.600233 -12.68,9.261269 -8.34599,5.57695 -13.60585,7.869515 -20.153937,8.784289 -1.854228,0.259038 -6.276209,0.456939 -7.776785,0.348043 z"
       id="path4892"
       inkscape:connector-curvature="0"
       transform="translate(256.83415,733.11218)" />
    <path
       style="fill:#ffbb3e;fill-opacity:1;stroke:none"
       d="m 70.354666,66.575667 c -0.69971,-0.08809 -1.648004,-0.223177 -2.10732,-0.300183 l -0.835121,-0.140009 6.96868,-6.383901 c 8.427542,-7.720342 10.684105,-9.695926 15.296317,-13.391676 7.683696,-6.156921 16.082538,-11.819674 24.552828,-16.554253 3.13958,-1.754912 12.1218,-6.291657 14.46718,-7.307097 2.33544,-1.011137 3.68143,-1.407696 8.69057,-2.560445 11.45742,-2.636689 18.67753,-3.846305 26.5165,-4.442427 2.479,-0.188517 12.84052,-0.568275 12.93473,-0.474067 0.0275,0.02754 -0.84299,0.18891 -1.93452,0.358592 -11.77278,1.830122 -22.87337,5.34724 -32.56697,10.318536 -2.13899,1.096972 -5.4403,2.755399 -7.33623,3.685393 -10.24831,5.027017 -13.67618,6.792467 -16.88217,8.69478 -9.09959,5.399356 -18.570181,12.072312 -29.858828,21.038449 -6.667275,5.295562 -8.400304,6.397692 -11.217776,7.134014 -1.568706,0.409969 -4.773208,0.565354 -6.68787,0.324294 l 0,0 z"
       id="path4894"
       inkscape:connector-curvature="0"
       transform="translate(256.83415,733.11218)" />
    <path
       style="fill:#ffa703;fill-opacity:1;stroke:none"
       d="m 121.56628,79.38029 c -7.86686,-0.540039 -15.34463,-1.998963 -24.030095,-4.688311 -4.851336,-1.502157 -13.216466,-4.510998 -13.037886,-4.689578 0.03356,-0.03356 0.969591,0.05512 2.080073,0.197069 1.110481,0.141946 3.610047,0.342584 5.554591,0.445862 2.598471,0.138009 5.034835,0.418769 9.192387,1.059307 13.25311,2.041855 23.20102,3.167943 34.64823,3.922125 1.84732,0.121707 6.80835,0.223265 11.02451,0.225684 8.67761,0.005 8.60298,-0.11667 0.81953,1.335813 -5.27084,0.9836 -9.92828,1.651697 -13.43503,1.927215 -2.46884,0.193972 -11.21558,0.374699 -12.81631,0.264814 l 0,0 z"
       id="path4896"
       inkscape:connector-curvature="0"
       transform="translate(256.83415,733.11218)" />
    <path
       style="fill:#ffb01e;fill-opacity:1;stroke:none"
       d="M 109.81063,84.241853 C 107.25905,84.033952 103.97777,83.5953 101.23696,83.095697 91.421432,81.306488 82.458584,77.17771 74.696107,70.869527 72.466615,69.057728 71.954559,68.580783 72.091671,68.44367 c 0.04028,-0.04028 0.877587,-0.128643 1.860671,-0.196352 l 1.787426,-0.123106 4.926229,1.960483 c 15.78179,6.280653 25.756903,9.066878 36.922813,10.313191 2.84323,0.317355 14.76044,0.322661 17.67767,0.0079 7.39981,-0.798498 14.13071,-1.940956 22.23177,-3.773472 1.72694,-0.390645 3.22053,-0.683383 3.3191,-0.650527 0.21602,0.07201 -9.44631,3.577035 -12.55779,4.555356 -6.5805,2.069067 -13.21939,3.123244 -23.42291,3.71928 -3.48887,0.203802 -12.45274,0.195128 -15.02602,-0.01454 l 0,0 z"
       id="path4898"
       inkscape:connector-curvature="0"
       transform="translate(256.83415,733.11218)" />
    <path
       style="fill:#ffd17d;fill-opacity:1;stroke:none"
       d="M 93.193623,90.334207 C 84.473989,89.376012 77.994374,85.653503 61.638983,72.20622 l -4.154252,-3.415596 -4.419417,-0.05986 c -5.732432,-0.07764 -10.078561,0.248901 -16.23001,1.219439 -8.762524,1.382498 -16.369427,3.791616 -19.894576,6.300643 -0.646414,0.460086 -2.766287,2.233933 -4.710831,3.941884 -5.976994,5.249773 -9.349521,7.954942 -9.9174011,7.954942 -0.4491277,0 -0.9529939,-1.081039 -0.9537048,-2.046164 -0.00152,-2.059277 2.7426047,-7.941827 4.8059468,-10.302466 2.1843938,-2.499133 5.4652461,-4.311165 10.4185021,-5.754193 3.847867,-1.120995 6.87489,-1.641658 20.130229,-3.462493 8.685856,-1.193144 11.206939,-1.629991 14.839709,-2.571388 1.696233,-0.439563 3.091994,-0.816753 3.101692,-0.838201 0.08072,-0.178502 5.339291,-6.108835 6.774458,-7.63987 3.711667,-3.9596 8.747188,-8.547302 13.044368,-11.884305 11.086278,-8.609124 24.674654,-15.13791 38.703074,-18.595608 3.31704,-0.817578 10.40437,-2.153086 10.15728,-1.913999 -0.0486,0.04704 -1.83848,1.022669 -3.97748,2.168065 -10.75082,5.756881 -18.5953,10.653191 -26.162947,16.330207 -6.325162,4.744941 -11.32473,9.008758 -19.79599,16.882751 -2.918464,2.712698 -5.81441,5.353965 -6.435433,5.869479 -1.621553,1.346063 -2.229011,1.521943 -5.588382,1.618035 -1.845264,0.05278 -2.873572,0.151139 -2.958303,0.282956 -0.286532,0.445764 -0.142383,1.131041 0.262459,1.247706 0.218761,0.06304 2.386485,0.159538 4.817165,0.214439 2.430679,0.0549 4.704347,0.171162 5.052596,0.258357 0.420836,0.105372 1.625597,0.988055 3.592461,2.632057 7.188557,6.008558 12.591429,9.113388 20.257932,11.641475 7.063976,2.329401 14.434062,3.426463 22.715802,3.381325 7.53226,-0.04105 9.81786,0.0084 9.19239,0.198824 -0.90236,0.274748 -14.51694,2.959062 -17.4125,3.433129 -5.05164,0.827066 -11.302263,1.299924 -13.700197,1.036417 l 0,0 z"
       id="path4900"
       inkscape:connector-curvature="0"
       transform="translate(256.83415,733.11218)" />
  </g>
</svg>
